08-10-2018 17:00:00,08-10-2018 18:56:05,333,20,0,
08-10-2018 17:00:00,08-10-2018 18:56:05,333,120,0,
08-10-2018 17:00:00,08-10-2018 18:56:05,333,210,0,
08-10-2018 17:00:00,08-10-2018 18:56:05,333,270,0,
