2018-08-15 01:11:20,1,1242,0
2018-08-15 01:27:37,1,as1258,15663111
2018-08-15 01:30:37,1,145,0
2018-08-15 11:19:33,1,124,15663111
2018-08-15 11:57:06,1,sd555,15663111
2018-08-15 12:04:11,1,1d1235,15663111
2018-08-15 15:15:16,1,1234,15663111
2018-08-15 15:19:11,1,1247,15663111
2018-08-15 00:12:42,11,46,5000021
2018-08-15 00:12:52,11,sd1234,6000149
2018-08-15 00:27:10,11,1hg5366,6000031
2018-08-15 00:52:36,11,1hs235,6000149
2018-08-15 00:52:44,11,836,6000031
2018-08-15 01:26:50,11,1234,5000021
2018-08-15 07:33:01,11,1234,6000031
2018-08-15 07:33:13,11,5652,5000021
2018-08-15 07:33:31,11,876,6000149
