2018-08-14 17:11:46,2018-08-14 17:15:14,2,1
2018-08-14 17:18:42,0001-01-01 00:00:00,2,1
2018-08-14 17:18:43,2018-08-14 17:19:19,2,1
2018-08-14 17:24:10,0001-01-01 00:00:00,1,1
2018-08-14 17:24:11,2018-08-14 17:25:48,1,1
2018-08-14 17:25:59,0001-01-01 00:00:00,2,1
2018-08-14 17:25:59,2018-08-14 18:21:40,2,1
2018-08-14 18:21:55,0001-01-01 00:00:00,1,1
2018-08-14 18:21:55,2018-08-14 18:22:12,1,1
2018-08-14 18:22:21,0001-01-01 00:00:00,2,1
2018-08-14 18:22:21,2018-08-14 18:22:46,2,1
2018-08-14 18:22:57,0001-01-01 00:00:00,2,1
2018-08-14 18:22:57,2018-08-14 18:31:03,2,1
2018-08-14 18:31:13,0001-01-01 00:00:00,1,1
2018-08-14 18:31:13,2018-08-14 18:32:25,1,1
2018-08-14 18:32:42,0001-01-01 00:00:00,2,1
2018-08-14 18:32:42,2018-08-14 18:53:35,2,1
