7800600,2019-08-20 16:24:00,2019-10-07 18:33:20,3,300,16050,300,99966,1,7,GATEA2,000,2,021910071832
7800600,2019-10-07 18:42:00,2019-10-07 18:43:12,0,0,10,0,20,1,7,GATEA2,5,2,021910071843
7800600,2019-08-20 16:24:00,2019-10-07 18:33:20,3,300,16050,300,99966,1,7,GATEA2,000,2,021910071832
7800600,2019-10-07 18:42:00,2019-10-07 18:43:12,0,0,10,0,20,1,7,GATEA2,5,2,021910071843
